[
  { "timestamp": "2020-11-02 05:42:12",
    "originURL": "https://www.reddit.com/r/Supernote/comments/jmhzzz/lined_templates_5mm_6mm_7mm/",
    "filename": [ "20201102054212_lined_5mm.png" ],
    "tags": [ "lines", "a6x 5mm" ],
    "owner": "u/tellurian-faberati",
    "title": "Ruled Line (5mm, adjusted for toolbars) for A6X",
    "description": "28 lines"
  },
  { "timestamp": "2020-11-02 05:42:12",
    "originURL": "https://www.reddit.com/r/Supernote/comments/jmhzzz/lined_templates_5mm_6mm_7mm/",
    "filename": [ "20201102054212_lined_6mm.png" ],
    "tags": [ "lines", "a6x 6mm" ],
    "owner": "u/tellurian-faberati",
    "title": "Ruled Line (6mm, adjusted for toolbars) for A6X",
    "description": "23 lines"
  },
  { "timestamp": "2020-11-02 05:42:12",
    "originURL": "https://www.reddit.com/r/Supernote/comments/jmhzzz/lined_templates_5mm_6mm_7mm/",
    "filename": [ "20201102054212_lined_7mm.png" ],
    "tags": [ "lines", "a6x 7mm" ],
    "owner": "u/tellurian-faberati",
    "title": "Ruled Line (7mm, adjusted for toolbars) for A6X",
    "description": "20 lines"
  }
]
