[
  { "timestamp": "2020-11-02 22:41:16",
    "originURL": "https://www.reddit.com/r/Supernote/comments/jmy2pz/calligraphy_template_6mm_55deg_slants/",
    "filename": [ "20201102224116_calligraphy_6mm_55deg.png" ],
    "tags": [ "calligraphy", "a6x", "6mm" ],
    "owner": "u/tellurian-faberati",
    "title": "Calligraphy (6mm, 55°) for A6X",
    "description": "28 lines"
  }
]
