[
  { "timestamp": "2021-02-06 22:44:43",
    "originURL": "https://www.reddit.com/r/Supernote/comments/le8umi/i_made_some_templates_for_language_learning_in/",
    "filename": [ "20210206224443_lang_defs.png" ],
    "tags": [ "learning" ],
    "owner": "u/PM_me_your_kitty_pix",
    "title": "Word Definition Language Learning",
    "description": ""
  },
  { "timestamp": "2021-02-06 22:44:43",
    "originURL": "https://www.reddit.com/r/Supernote/comments/le8umi/i_made_some_templates_for_language_learning_in/",
    "filename": [ "20210206224443_lang_word_sentence.png" ],
    "tags": [ "learning" ],
    "owner": "u/PM_me_your_kitty_pix",
    "title": "Top Words/Sentences Language Learning",
    "description": ""
  },
  { "timestamp": "2021-02-06 22:44:43",
    "originURL": "https://www.reddit.com/r/Supernote/comments/le8umi/i_made_some_templates_for_language_learning_in/",
    "filename": [ "20210206224443_lang_grammar.png" ],
    "tags": [ "learning" ],
    "owner": "u/PM_me_your_kitty_pix",
    "title": "Keyword/Grammar Language Learning",
    "description": ""
  }
]
