[
  { "timestamp": "2021-09-04 11:29:42",
    "originURL": "https://www.reddit.com/r/Supernote/comments/phpuvr/bullet_journal_rolling_weekly_template_for_ax5/",
    "filename": [ "20210904112942_bujo_rolling_weekly.png", "20210904112942_bujo_rolling_weekly_fwd.png" ],
    "tags": [ "weekly" ],
    "owner": "u/musicalgirl85",
    "title": "Bullet Journal Rolling Weekly",
    "description": ""
  }
]