[
  { "timestamp": "2021-05-15 11:13:17",
    "originURL": "https://www.reddit.com/r/Supernote/comments/ncwij4/i_made_a_template_for_a5x/",
    "filename": [ "20210515111317_daily.png" ],
    "tags": [ "planner", "daily" ],
    "owner": "u/Pitiful-Estimate-460",
    "title": "Two Day Planner",
    "description": ""
  }
]