[
  { "timestamp": "2021-05-29 20:11:57",
    "originURL": "https://www.reddit.com/r/Supernote/comments/nnvcq0/template_workflow_inspired_by_kanban_method/",
    "filename": [ "20210529201157_kanban.png" ],
    "tags": [ "kanban" ],
    "owner": "u/nikosan-zero",
    "title": "Kanban Workflow",
    "description": ""
  }
]