[
  { "timestamp": "2021-12-05 19:29:43",
    "originURL": "https://www.reddit.com/r/Supernote/comments/r9n9sn/dungeons_dragons_notes_on_a5x/",
    "filename": [ "20211205192943_dnd_items.png", "20211205192943_dnd_todo.png", "20211205192943_dnd_entity.png", "20211205192943_dnd_fight.png", "20211205192943_dnd_location.png" ],
    "tags": [ "game" ],
    "owner": "u/m42e_",
    "title": "D&D Notes",
    "description": ""
  }
]