[
  { "timestamp": "2021-05-15 14:46:08",
    "originURL": "https://www.reddit.com/r/Supernote/comments/nd0h61/planner_weekly_and_practical_question/",
    "filename": [ "20210515144608_weekly.png" ],
    "tags": [ "planner", "weekly" ],
    "owner": "u/nikosan-zero",
    "title": "Weekly Planner",
    "description": ""
  }
]