[
  { "timestamp": "2021-02-02 10:53:27",
    "originURL": "https://www.reddit.com/r/Supernote/comments/lat0nn/a_few_a5x_templates/",
    "filename": [ "20210202105327_writing_std.png" ],
    "tags": [ "writing" ],
    "owner": "u/IncorrectComedian",
    "title": "Writing Practice (Standard)",
    "description": ""
  },
  { "timestamp": "2021-02-02 10:53:27",
    "originURL": "https://www.reddit.com/r/Supernote/comments/lat0nn/a_few_a5x_templates/",
    "filename": [ "20210202105327_writing_lg.png" ],
    "tags": [ "writing" ],
    "owner": "u/IncorrectComedian",
    "title": "Writing Practice (Large)",
    "description": ""
  },
  { "timestamp": "2021-02-02 10:53:27",
    "originURL": "https://www.reddit.com/r/Supernote/comments/lat0nn/a_few_a5x_templates/",
    "filename": [ "20210202105327_writing_slant.png" ],
    "tags": [ "writing" ],
    "owner": "u/IncorrectComedian",
    "title": "Writing Practice (Slanted)",
    "description": ""
  },
  { "timestamp": "2021-02-02 10:53:27",
    "originURL": "https://www.reddit.com/r/Supernote/comments/lat0nn/a_few_a5x_templates/",
    "filename": [ "20210202105327_daily_plan.png" ],
    "tags": [ "planner", "daily" ],
    "owner": "u/IncorrectComedian",
    "title": "Daily Planner",
    "description": ""
  },
  { "timestamp": "2021-02-02 10:53:27",
    "originURL": "https://www.reddit.com/r/Supernote/comments/lat0nn/a_few_a5x_templates/",
    "filename": [ "20210202105327_daily_tasks.png" ],
    "tags": [ "planner", "daily" ],
    "owner": "u/IncorrectComedian",
    "title": "Daily Planner",
    "description": ""
  }
]
