[
  { "timestamp": "2021-11-19 19:52:14",
    "originURL": "https://www.reddit.com/r/Supernote/comments/qxo2m0/5x5_engineering_grid/",
    "filename": [ "20211119195214_5x5_grid.png" ],
    "tags": [ "grid" ],
    "owner": "u/id10tapproved",
    "title": "Engineering Grid (5x5)",
    "description": ""
  }
]