[
  { "timestamp": "2021-02-16 20:59:39",
    "originURL": "https://www.reddit.com/r/Supernote/comments/lldi0l/tracker_templates/",
    "filename": [ "20210216205939_daily_habit_box.png", "20210216205939_daily_habit_axis.png" ],
    "tags": [ "tracker", "habit", "daily" ],
    "owner": "u/tellurian-faberati",
    "title": "Daily Habit Tracker",
    "description": "square and intersection variants"
  },
  { "timestamp": "2021-02-16 20:59:39",
    "originURL": "https://www.reddit.com/r/Supernote/comments/lldi0l/tracker_templates/",
    "filename": [ "20210216205939_hourly_habit.png" ],
    "tags": [ "tracker", "habit", "hourly" ],
    "owner": "u/tellurian-faberati",
    "title": "Hours of the Day Habit Tracker",
    "description": ""
  },
  { "timestamp": "2021-02-16 20:59:39",
    "originURL": "https://www.reddit.com/r/Supernote/comments/lldi0l/tracker_templates/",
    "filename": [ "20210216205939_yearly_habit.png" ],
    "tags": [ "tracker", "habit", "yearly" ],
    "owner": "u/tellurian-faberati",
    "title": "Days of the Year Habit Tracker",
    "description": ""
  }
]