[
  { "timestamp": "2022-12-19 09:45:39",
    "originURL": "https://www.reddit.com/r/Supernote/comments/zpnayf/contact_template/",
    "filename": [ "20221219094539_contact.png" ],
    "tags": [ "contact" ],
    "owner": "u/Moose_L_Dorf",
    "title": "Contact",
    "description": ""
  }
]