[
  { "timestamp": "2022-12-21 15:30:00",
    "originURL": "https://www.reddit.com/r/Supernote/comments/zrqp8k/my_daily_pomodoro_template_for_a5x_1404x1872/",
    "filename": [ "20221221153000_pomodoro.png" ],
    "tags": [ "pomodoro", "daily" ],
    "owner": "u/focuscheetah",
    "title": "Daily Pomodoro",
    "description": ""
  }
]