[
  { "timestamp": "2022-12-27 03:14:39",
    "originURL": "https://www.reddit.com/r/Supernote/comments/zw5448/pottery_template_a6x_toolbar_to_left_pagination/",
    "filename": [ "20221227031439_pottery.png" ],
    "tags": [ "notes" ],
    "owner": "u/tj-cdn",
    "title": "Pottery",
    "description": ""
  }
]
