[
  { "timestamp": "2022-09-08 00:34:04",
    "originURL": "https://www.reddit.com/r/Supernote/comments/x8lgqz/toolbar_safe_design_template/",
    "filename": [ "20220908003404_template.png" ],
    "tags": [ "template" ],
    "owner": "u/ClumsyWoodsman",
    "title": "Template Template (with Toolbars)",
    "description": ""
  }
]