[
  { "timestamp": "2022-11-22 13:59:48",
    "originURL": "https://www.reddit.com/r/Supernote/comments/z1ua9j/whitelined_templates/",
    "filename": [ "20221122135948_grid_white.png" ],
    "tags": [ "grid", "a5x" ],
    "owner": "u/Waste-Broccoli4086",
    "title": "Grid (White Line)",
    "description": ""
  },
  { "timestamp": "2022-11-22 13:59:48",
    "originURL": "https://www.reddit.com/r/Supernote/comments/z1ua9j/whitelined_templates/",
    "filename": [ "20221122135948_line_white.png" ],
    "tags": [ "lines", "a5x" ],
    "owner": "u/Waste-Broccoli4086",
    "title": "Liens (White Line)",
    "description": ""
  },
  { "timestamp": "2022-11-22 13:59:48",
    "originURL": "https://www.reddit.com/r/Supernote/comments/z1ua9j/whitelined_templates/",
    "filename": [ "20221122135948_dotted_grey.png" ],
    "tags": [ "dotted grid", "square" ],
    "owner": "u/Waste-Broccoli4086",
    "title": "Dotted Grid (Grey BG)",
    "description": ""
  },
  { "timestamp": "2022-11-22 13:59:48",
    "originURL": "https://www.reddit.com/r/Supernote/comments/z1ua9j/whitelined_templates/",
    "filename": [ "20221122135948_todo.png" ],
    "tags": [ "planner" ],
    "owner": "u/Waste-Broccoli4086",
    "title": "Daily TODO",
    "description": ""
  }
]