[
  { "timestamp": "2022-12-26 18:23:25",
    "originURL": "https://www.reddit.com/r/Supernote/comments/zvt8q5/2023_twomonth_templates/",
    "filename": [ "20221226182325_jan_feb.png", "20221226182325_mar_apr.png", "20221226182325_may_jun.png", "20221226182325_jul_aug.png", "20221226182325_sep_oct.png", "20221226182325_nov_dec.png" ],
    "tags": [ "monthly" ],
    "owner": "u/Flibberand",
    "title": "Two-Month 2023",
    "description": ""
  }
]