[
  { "timestamp": "2022-09-12 13:28:10",
    "originURL": "https://www.reddit.com/r/Supernote/comments/xccv49/weekly_planner_template/",
    "filename": [ "20220912132810_weekly_planner.png" ],
    "tags": [ "planner", "weekly" ],
    "owner": "u/knnmrcl",
    "title": "Weekly Planner",
    "description": ""
  }
]