[
  { "timestamp": "2022-12-13 04:53:14",
    "originURL": "https://www.reddit.com/r/Supernote/comments/zkmrw5/expenses_templates/",
    "filename": [ "20221213045314_monthly_budget.png" ],
    "tags": [ "budget" ],
    "owner": "u/yorcharturoqro",
    "title": "Monthly Budget",
    "description": ""
  },
  { "timestamp": "2022-12-13 04:53:14",
    "originURL": "https://www.reddit.com/r/Supernote/comments/zkmrw5/expenses_templates/",
    "filename": [ "20221213045314_spending_goals.png" ],
    "tags": [ "budget" ],
    "owner": "u/yorcharturoqro",
    "title": "Spending Money",
    "description": ""
  },
  { "timestamp": "2022-12-13 04:53:14",
    "originURL": "https://www.reddit.com/r/Supernote/comments/zkmrw5/expenses_templates/",
    "filename": [ "20221213045314_weekly_budget.png" ],
    "tags": [ "budget" ],
    "owner": "u/yorcharturoqro",
    "title": "Weekly Budget",
    "description": ""
  },
  { "timestamp": "2022-12-13 04:53:14",
    "originURL": "https://www.reddit.com/r/Supernote/comments/zkmrw5/expenses_templates/",
    "filename": [ "20221213045314_monthly_balance.png" ],
    "tags": [ "budget" ],
    "owner": "u/yorcharturoqro",
    "title": "Monthly Budget",
    "description": ""
  },
  { "timestamp": "2022-12-13 04:53:14",
    "originURL": "https://www.reddit.com/r/Supernote/comments/zkmrw5/expenses_templates/",
    "filename": [ "20221213045314_monthly_review.png" ],
    "tags": [ "budget" ],
    "owner": "u/yorcharturoqro",
    "title": "Month in Review",
    "description": ""
  },
  { "timestamp": "2022-12-13 04:53:14",
    "originURL": "https://www.reddit.com/r/Supernote/comments/zkmrw5/expenses_templates/",
    "filename": [ "20221213045314_monthly_expenses.png" ],
    "tags": [ "budget" ],
    "owner": "u/yorcharturoqro",
    "title": "Monthly Budget",
    "description": ""
  }
]