[
  { "timestamp": "2022-02-18 01:25:00",
    "filename": [ "20220218012500_climb_journal_rope.png" ],
    "tags": [ "sport" ],
    "owner": "u/Dangerous_Brain_1027",
    "title": "Rock Climbing Journal (rope)",
    "description": ""
  }
]
