[
  { "timestamp": "2023-01-08 00:13:12",
    "originURL": "https://www.reddit.com/r/Supernote/comments/10646qk/my_custom_a5x_ruled_line_template/",
    "filename": [ "20230108001312_college.png" ],
    "tags": [ "lines", "college" ],
    "owner": "u/catrancher1",
    "title": "College Ruled",
    "description": ""
  }
]