[
  { "timestamp": "2023-01-05 19:51:30",
    "originURL": "https://www.reddit.com/r/Supernote/comments/10489nt/battleship/",
    "filename": [ "20230105195130_battleship.png" ],
    "tags": [ "game" ],
    "owner": "u/kyletimbaker",
    "title": "Battleship",
    "description": ""
  }
]