[
  { "timestamp": "2022-09-13 20:26:34",
    "originURL": "https://github.com/fharper/awesome-supernote",
    "filename": [ "type_git.png" ],
    "tags": [ "git" ],
    "owner": "u/fharper_",
    "title": "fharper/awesome-supernote",
    "description": ""
  }
]
